<?xml version="1.0"?>
<robot name="Ball" xmlns:xacro="http://www.ros.org/wiki/xacro" >
  <xacro:arg name="debug" default="0"/>
  <xacro:arg name="namespace" default="Ball"/>
  <!-- Include the ROV macro file xacro:bluerov2_base -->
  <xacro:include filename="$(find ts6_bluerov2_perception)/urdf/base_Ball.xacro"/>
  <!-- Hydrodynamic and hydrostatic parameters for the vehicle xacro:macro bluerov2_hydro_model -->
  <xacro:include filename="$(find ts6_bluerov2_perception)/urdf/gazebo.xacro"/>

<!-- Create the bluerov2 -->
  <xacro:Ball_base namespace="$(arg namespace)">
    <!-- The underwater object plugin is given as an input block parameter to
     allow the addition of external models of manipulator units -->
    <gazebo>
      <plugin name="uuv_plugin" filename="libuuv_underwater_object_ros_plugin.so">
        <fluid_density>1028.0</fluid_density>
        <flow_velocity_topic>hydrodynamics/current_velocity</flow_velocity_topic>
        <debug>$(arg debug)</debug>
        <!-- Adding the hydrodynamic and hydrostatic parameters for the vehicle -->
        <xacro:bluerov2_hydro_model namespace="$(arg namespace)"/>
        <!--
          In case other modules are added to the vehicle (such as a manipulator)
          that also have link running with the underwater object plugin, they
          should also be added in this block. For this, this new module should
          have a file similar to gazebo.xacro above with the description of the
          parameter necessary for the underwater object plugin to be initialized.
        -->
      </plugin>
    </gazebo>
  </xacro:Ball_base>

  <!-- Joint state publisher plugin -->
  <xacro:default_joint_state_publisher namespace="$(arg namespace)" update_rate="10"/>

</robot>
